@startuml

title "Participants - Sequence Diagram"

control EjbContainer
control Skeleton
control ServerObject
control Register
control Client
control Stub

EjbContainer -> Skeleton : new
activate Skeleton

EjbContainer -> ServerObject : new
activate ServerObject
EjbContainer -> Skeleton : export ServerObject
EjbContainer <-- Skeleton : Stub

EjbContainer -> Skeleton : start

EjbContainer -> Register : bind Stub

activate Client

Client -> Register : lookup Stub
Client <-- Register : Stub

Client -> Stub : invoke
Stub -> Skeleton : by network
Skeleton -> ServerObject : invoke
Skeleton <-- ServerObject : result
Stub <-- Skeleton : by network
Client <-- Stub : result


@enduml